import com.bbva.utils.templates.model.business.ErrorDetails;
import com.bbva.utils.templates.model.business.xls.BusinessService;
import com.bbva.utils.templates.model.business.xls.MultiChannelAndBusinessServicesRelationship;
import java.util.List;
import org.apache.commons.lang3.StringUtils;
import com.bbva.utils.templates.model.business.Cell
import com.bbva.utils.CollectionUtils;

rule "MultiChannelAndBusinessServicesRelationshipFieldBusinessServicesValidator"
	dialect "mvel"
	salience 19
	when
		relacionSNSMC : MultiChannelAndBusinessServicesRelationship()
		exists List( size > 1 ) from collect ( BusinessService( ) from relacionSNSMC.serviciosDeNegocio)
    then
		System.out.println("rule \"MultiChannelAndBusinessServicesRelationshipFieldBusinessServicesValidator\" fired");
        com.bbva.utils.templates.model.business.ErrorDetails error = new com.bbva.utils.templates.model.business.ErrorDetails();
		error.setFieldName( "SERVICIOS DE NEGOCIO (SN)" );
		error.setComment( "La plantilla solo debe poseer un único Servicio de Negocio (SN)" );
		error.setObject( relacionSNSMC.serviciosDeNegocio );
		error.setCells( CollectionUtils.transformByGetterOfField(relacionSNSMC.serviciosDeNegocio, "registryID") );
        error.addExpectedValue("Un único Servicio de Negocio (SN)");

		error.setRuleName("MultiChannelAndBusinessServicesRelationshipFieldBusinessServicesValidator");
		insert( error );
end