import com.bbva.utils.templates.model.business.ErrorDetails;
import com.bbva.utils.templates.model.business.xls.Template;
import com.bbva.utils.templates.model.business.xls.MultiChannelServiceDetail;
import java.util.List;
import com.bbva.utils.templates.model.business.Cell;

rule "TemplateFieldMultiChannelServiceDetailValidator"
	dialect "mvel"
	salience 19
	when
		template_ : Template()
		not List(size > 0) from collect(MultiChannelServiceDetail( ) from template_.detalleServicios)
	then
        com.bbva.utils.templates.model.business.ErrorDetails error = new com.bbva.utils.templates.model.business.ErrorDetails();
		error.setFieldName( "Detalles de los Servicios" );
		error.setComment( "La plantilla debe poseer al menos 1 Servicio Multi-Canal (SMC)" );
		error.setObject( template_ );
		error.addCell( null );
        error.addExpectedValue("Un Servicio Multi-Canal (SMC)");
		error.setRuleName("TemplateFieldMultiChannelServiceDetailValidator");
		insert( error );
end